An Overview of Basic Features in spmodel • spmodel
…
spcov_type: the spatial covariance type ("exponential", "spherical", "matern", etc).

If data is an sf object, the coordinate information is taken from the object’s geometry. If data is a data.frame (or tibble), then xcoord and ycoord are required arguments to splm() that specify the columns in data representing the x-coordinates and y-coordinates, respectively. spmodel uses the spatial coordinates “as-is,” meaning that spmodel does not perform any projections. To project your data or change the coordinate reference system, use sf::st_transform(). If an sf object with polygon geometries is given to splm(), the centroids of each polygon are used to fit the spatial linear model.

Next we show the basic features and syntax of splm() using the Alaskan moss data. We study the impact of log distance to the road (log_dist2road) on log zinc concentration (log_Zn). We view the first few rows of the moss data by running

moss

#> Simple feature collection with 365 features and 7 fields
#> Geometry type: POINT
#> Dimension:     XY
#> Bounding box:  xmin: -445884.1 ymin: 1929616 xmax: -383656.8 ymax: 2061414
#> Projected CRS: NAD83 / Alaska Albers
#> # A tibble: 365 x 8
#>    sample field_dup lab_rep year  sideroad log_dist2road log_Zn
#>    <fct>  <fct>     <fct>   <fct> <fct>            <dbl>  <dbl>
#>  1 001PR  1         1       2001  N                 2.68   7.33
#>  2 001PR  1         2       2001  N                 2.68   7.38
#>  3 002PR  1         1       2001  N                 2.54   7.58
#>  4 003PR  1         1       2001  N                 2.97   7.63
#>  5 004PR  1         1       2001  N                 2.72   7.26
#>  6 005PR  1         1       2001  N                 2.76   7.65
#>  7 006PR  1         1       2001  S                 2.30   7.59
#>  8 007PR  1         1       2001  N                 2.78   7.16
#>  9 008PR  1         1       2001  N                 2.93   7.19
#> 10 009PR  1         1       2001  N                 2.79   8.07
#> # ... with 355 more rows, and 1 more variable: geometry <POINT [m]>
…
The much lower AIC and AICc for the spatial linear model indicates it is a much better fit to the data. Outside of glance() and glances(), the functions AIC(), AICc(), logLik(), deviance(), and pseudoR2() are available to compute the relevant statistics.

We augment the data with diagnostics by running

augment(spmod)

#> Simple feature collection with 365 features and 7 fields
#> Geometry type: POINT
#> Dimension:     XY
#> Bounding box:  xmin: -445884.1 ymin: 1929616 xmax: -383656.8 ymax: 2061414
#> Projected CRS: NAD83 / Alaska Albers
#> # A tibble: 365 x 8
#>    log_Zn log_dist2road .fitted .resid    .hat  .cooksd .std.resid
#>  *  <dbl>         <dbl>   <dbl>  <dbl>   <dbl>    <dbl>      <dbl>
#>  1   7.33          2.68    8.26 -0.928 0.102   0.112        -1.48 
#>  2   7.38          2.68    8.26 -0.880 0.0101  0.000507     -0.316
#>  3   7.58          2.54    8.34 -0.755 0.0170  0.000475     -0.236
#>  4   7.63          2.97    8.09 -0.464 0.0137  0.000219      0.178
#>  5   7.26          2.72    8.24 -0.977 0.0177  0.00515      -0.762
#>  6   7.65          2.76    8.21 -0.568 0.0147  0.000929     -0.355
#>  7   7.59          2.30    8.47 -0.886 0.0170  0.00802      -0.971
#>  8   7.16          2.78    8.20 -1.05  0.0593  0.0492       -1.29 
#>  9   7.19          2.93    8.12 -0.926 0.00793 0.000451     -0.337
#> 10   8.07          2.79    8.20 -0.123 0.0265  0.00396       0.547
#> # ... with 355 more rows, and 1 more variable: geometry <POINT [m]>
…
These predictions have similar sulfate patterns as in the observed data (predicted values are highest in the Northeast and lowest in the Midwest and West). Next we remove the model predictions from sulfate_preds before showing how augment() can be used to obtain the same predictions:

sulfate_preds$preds <- NULL

While augment() was previously used to augment the original data with model diagnostics, it can also be used to augment the newdata data with predictions:

augment(sulfmod, newdata = sulfate_preds)

#> Simple feature collection with 100 features and 1 field
#> Geometry type: POINT
#> Dimension:     XY
#> Bounding box:  xmin: -2283774 ymin: 582930.5 xmax: 1985906 ymax: 3037173
#> Projected CRS: NAD83 / Conus Albers
#> # A tibble: 100 x 2
#>    .fitted            geometry
#>  *   <dbl>         <POINT [m]>
#>  1    1.40  (-1771413 1752976)
#>  2   24.5    (1018112 1867127)
#>  3    8.99 (-291256.8 1553212)
#>  4   16.4    (1274293 1267835)
#>  5    4.91 (-547437.6 1638825)
#>  6   26.7    (1445080 1981278)
#>  7    3.00  (-1629090 3037173)
#>  8   14.3    (1302757 1039534)
#>  9    1.49  (-1429838 2523494)
#> 10   14.4    (1131970 1096609)
#> # ... with 90 more rows

Here .fitted represents the predictions.

Confidence intervals for the mean response or prediction intervals for the predicted response can be obtained by specifying the interval argument in predict() and augment():

augment(sulfmod, newdata = sulfate_preds, interval = "prediction")

#> Simple feature collection with 100 features and 3 fields
#> Geometry type: POINT
#> Dimension:     XY
#> Bounding box:  xmin: -2283774 ymin: 582930.5 xmax: 1985906 ymax: 3037173
#> Projected CRS: NAD83 / Conus Albers
#> # A tibble: 100 x 4
#>    .fitted .lower .upper            geometry
#>  *   <dbl>  <dbl>  <dbl>         <POINT [m]>
#>  1    1.40  -6.62   9.42  (-1771413 1752976)
#>  2   24.5   17.0   32.0    (1018112 1867127)
#>  3    8.99   1.09  16.9  (-291256.8 1553212)
#>  4   16.4    8.67  24.2    (1274293 1267835)
#>  5    4.91  -2.80  12.6  (-547437.6 1638825)
#>  6   26.7   19.2   34.2    (1445080 1981278)
#>  7    3.00  -4.92  10.9   (-1629090 3037173)
#>  8   14.3    6.76  21.8    (1302757 1039534)
#>  9    1.49  -6.34   9.32  (-1429838 2523494)
#> 10   14.4    6.74  22.1    (1131970 1096609)
#> # ... with 90 more rows

By default, predict() and augment() compute 95% intervals, though this can be changed using the level argument.

While the fitted model in this example only used an intercept, the same code is used for prediction with fitted models having explanatory variables. If explanatory variables were used to fit the model, the same explanatory variables must be included in newdata with the same names they have in data. If data is a data.frame, coordinates must be included in newdata with the same names as they have in data. If data is an sf object, coordinates must be included in newdata with the same geometry name as they have in data. When using projected coordinates, the projection for newdata should be the same as the projection for data.

An Additional Example

We now use the caribou data from a foraging experiment conducted in Alaska to show an application of splm() to data stored in a tibble (data.frame) instead of an sf object. In caribou, the x-coordinates are stored in the x column and the y-coordinates are stored in the y column. We view the first few rows of caribou by running

caribou

#> # A tibble: 30 x 5
#>    water tarp      z     x     y
#>    <fct> <fct> <dbl> <dbl> <dbl>
#>  1 Y     clear  2.42     1     6
#>  2 Y     shade  2.44     2     6
#>  3 Y     none   1.81     3     6
#>  4 N     clear  1.97     4     6
#>  5 N     shade  2.38     5     6
#>  6 Y     none   2.22     1     5
#>  7 N     clear  2.10     2     5
#>  8 Y     clear  1.80     3     5
#>  9 Y     shade  1.96     4     5
#> 10 Y     none   2.10     5     5
#> # ... with 20 more rows
…
