Using emmeans to Estimate Marginal Means of spmodel Objects • spmodel
…
Applying emmeans to spmodel Objects

In this section, we use the point-referenced lake data,
an sf object that contains data on lake conductivty for
some southwestern states (Arizona, Colorado, Nevada, Utah) in the United
States. We view the first few rows of lake by running

lake

#> Simple feature collection with 102 features and 8 fields
#> Geometry type: POINT
#> Dimension:     XY
#> Bounding box:  xmin: -2004016 ymin: 1031593 xmax: -753669.4 ymax: 2338804
#> Projected CRS: NAD83 / Conus Albers
#> # A tibble: 102 × 9
#>    comid    log_cond state  temp precip   elev origin     year 
#>  * <chr>       <dbl> <chr> <dbl>  <dbl>  <dbl> <chr>      <fct>
#>  1 20451100     6.32 AZ    12.7   4.94  1567   HUMAN_MADE 2012 
#>  2 20476542     7.02 AZ    21.8   5.78   459   HUMAN_MADE 2012 
#>  3 10001770     7.13 AZ    23.2   0.912   69.1 HUMAN_MADE 2012 
#>  4 20584396     6.17 AZ    11.2   4.44  1822   HUMAN_MADE 2012 
#>  5 20524727     5.48 AZ     8.31  6.12  2168   HUMAN_MADE 2012 
#>  6 20479908     7.00 AZ    22.4   2.31   366.  HUMAN_MADE 2012 
#>  7 10001834     7.85 AZ    23.5   0.989   57.7 NATURAL    2012 
#>  8 20695686     4.77 AZ     9.13  5.91  2072.  HUMAN_MADE 2012 
#>  9 21327603     5.30 AZ    17.9   2.83  1006.  HUMAN_MADE 2012 
#> 10 20449310     4.33 AZ     9.79  6.14  1998.  HUMAN_MADE 2012 
#> # ℹ 92 more rows
#> # ℹ 1 more variable: geometry <POINT [m]>
…
