A Detailed Guide to spmodel • spmodel
…
In the following subsections, we use the point-referenced
moss data, an sf object that contains data on
heavy metals in mosses near a mining road in Alaska. We view the first
few rows of moss by running

moss

#> Simple feature collection with 365 features and 7 fields
#> Geometry type: POINT
#> Dimension:     XY
#> Bounding box:  xmin: -445884.1 ymin: 1929616 xmax: -383656.8 ymax: 2061414
#> Projected CRS: NAD83 / Alaska Albers
#> # A tibble: 365 × 8
#>    sample field_dup lab_rep year  sideroad log_dist2road log_Zn
#>    <fct>  <fct>     <fct>   <fct> <fct>            <dbl>  <dbl>
#>  1 001PR  1         1       2001  N                 2.68   7.33
#>  2 001PR  1         2       2001  N                 2.68   7.38
#>  3 002PR  1         1       2001  N                 2.54   7.58
#>  4 003PR  1         1       2001  N                 2.97   7.63
#>  5 004PR  1         1       2001  N                 2.72   7.26
#>  6 005PR  1         1       2001  N                 2.76   7.65
#>  7 006PR  1         1       2001  S                 2.30   7.59
#>  8 007PR  1         1       2001  N                 2.78   7.16
#>  9 008PR  1         1       2001  N                 2.93   7.19
#> 10 009PR  1         1       2001  N                 2.79   8.07
#> # ℹ 355 more rows
#> # ℹ 1 more variable: geometry <POINT [m]>
…
Finally, the augment() function augments the original
data with model diagnostics:

augment(spmod)

#> Simple feature collection with 365 features and 7 fields
#> Geometry type: POINT
#> Dimension:     XY
#> Bounding box:  xmin: -445884.1 ymin: 1929616 xmax: -383656.8 ymax: 2061414
#> Projected CRS: NAD83 / Alaska Albers
#> # A tibble: 365 × 8
#>    log_Zn log_dist2road .fitted .resid   .hat .cooksd .std.resid
#>  *  <dbl>         <dbl>   <dbl>  <dbl>  <dbl>   <dbl>      <dbl>
#>  1   7.33          2.68    8.26 -0.928 0.0200 0.0142       1.18 
#>  2   7.38          2.68    8.26 -0.880 0.0200 0.0186       1.35 
#>  3   7.58          2.54    8.34 -0.755 0.0225 0.00482      0.647
#>  4   7.63          2.97    8.09 -0.464 0.0197 0.0305       1.74 
#>  5   7.26          2.72    8.24 -0.977 0.0215 0.131        3.45 
#>  6   7.65          2.76    8.21 -0.568 0.0284 0.0521       1.89 
#>  7   7.59          2.30    8.47 -0.886 0.0300 0.0591       1.96 
#>  8   7.16          2.78    8.20 -1.05  0.0335 0.00334      0.439
#>  9   7.19          2.93    8.12 -0.926 0.0378 0.0309       1.26 
#> 10   8.07          2.79    8.20 -0.123 0.0314 0.00847      0.723
#> # ℹ 355 more rows
#> # ℹ 1 more variable: geometry <POINT [m]>
…
Next we use the seal data, an sf object
that contains the log of the estimated harbor-seal trends from abundance
data across polygons in Alaska, to provide an example of fitting a
spatial linear model for areal data using spautor(). We
view the first few rows of seal by running

seal

#> Simple feature collection with 62 features and 1 field
#> Geometry type: POLYGON
#> Dimension:     XY
#> Bounding box:  xmin: 913618.8 ymin: 1007542 xmax: 1116002 ymax: 1145054
#> Projected CRS: NAD83 / Alaska Albers
#> # A tibble: 62 × 2
#>    log_trend                                                            geometry
#>        <dbl>                                                       <POLYGON [m]>
#>  1  NA       ((1035002 1054710, 1035002 1054542, 1035002 1053542, 1035002 10525…
#>  2  -0.282   ((1037002 1039492, 1037006 1039490, 1037017 1039492, 1037035 10394…
#>  3  -0.00121 ((1070158 1030216, 1070185 1030207, 1070187 1030207, 1070211 10302…
#>  4   0.0354  ((1054906 1034826, 1054931 1034821, 1054936 1034822, 1055001 10348…
#>  5  -0.0160  ((1025142 1056940, 1025184 1056889, 1025222 1056836, 1025256 10567…
#>  6   0.0872  ((1026035 1044623, 1026037 1044605, 1026072 1044610, 1026083 10446…
#>  7  -0.266   ((1100345 1060709, 1100287 1060706, 1100228 1060706, 1100170 10607…
#>  8   0.0743  ((1030247 1029637, 1030248 1029637, 1030265 1029642, 1030328 10296…
#>  9  NA       ((1043093 1020553, 1043097 1020550, 1043101 1020550, 1043166 10205…
#> 10  -0.00961 ((1116002 1024542, 1116002 1023542, 1116002 1022542, 1116002 10215…
#> # ℹ 52 more rows
…
glance(sealmod)

#> # A tibble: 1 × 9
#>       n     p  npar value   AIC  AICc logLik deviance pseudo.r.squared
#>   <int> <dbl> <int> <dbl> <dbl> <dbl>  <dbl>    <dbl>            <dbl>
#> 1    34     1     3 -36.9 -30.9 -30.1   18.4     33.2                0

augment(sealmod)

#> Simple feature collection with 34 features and 6 fields
#> Geometry type: POLYGON
#> Dimension:     XY
#> Bounding box:  xmin: 980001.5 ymin: 1010815 xmax: 1116002 ymax: 1145054
#> Projected CRS: NAD83 / Alaska Albers
#> # A tibble: 34 × 7
#>    log_trend .fitted  .resid   .hat .cooksd .std.resid                  geometry
#>  *     <dbl>   <dbl>   <dbl>  <dbl>   <dbl>      <dbl>             <POLYGON [m]>
#>  1  -0.282   -0.0710 -0.211  0.0162 0.0211      -1.13  ((1037002 1039492, 10370…
#>  2  -0.00121 -0.0710  0.0698 0.0475 0.0260       0.722 ((1070158 1030216, 10701…
#>  3   0.0354  -0.0710  0.106  0.0292 0.0185       0.786 ((1054906 1034826, 10549…
#>  4  -0.0160  -0.0710  0.0550 0.0229 0.00160      0.262 ((1025142 1056940, 10251…
#>  5   0.0872  -0.0710  0.158  0.0277 0.0389       1.17  ((1026035 1044623, 10260…
#>  6  -0.266   -0.0710 -0.195  0.0278 0.0499      -1.32  ((1100345 1060709, 11002…
#>  7   0.0743  -0.0710  0.145  0.0493 0.0914       1.33  ((1030247 1029637, 10302…
#>  8  -0.00961 -0.0710  0.0614 0.0123 0.00245      0.445 ((1116002 1024542, 11160…
#>  9  -0.182   -0.0710 -0.111  0.0226 0.0226      -0.990 ((1079864 1025088, 10798…
#> 10   0.00351 -0.0710  0.0745 0.0317 0.0102       0.558 ((1110363 1037056, 11103…
#> # ℹ 24 more rows
…
sulfate_preds$preds <- NULL

We then view the first few rows of sulfate_preds
augmented with 90% prediction intervals by running

augment(sulfmod, newdata = sulfate_preds, interval = "prediction", level = 0.90)

#> Simple feature collection with 100 features and 3 fields
#> Geometry type: POINT
#> Dimension:     XY
#> Bounding box:  xmin: -2283774 ymin: 582930.5 xmax: 1985906 ymax: 3037173
#> Projected CRS: NAD83 / Conus Albers
#> # A tibble: 100 × 4
#>    .fitted .lower .upper            geometry
#>  *   <dbl>  <dbl>  <dbl>         <POINT [m]>
#>  1    1.40  -5.33   8.14  (-1771413 1752976)
#>  2   24.5   18.2   30.8    (1018112 1867127)
#>  3    8.99   2.36  15.6  (-291256.8 1553212)
#>  4   16.4    9.92  23.0    (1274293 1267835)
#>  5    4.91  -1.56  11.4  (-547437.6 1638825)
#>  6   26.7   20.4   33.0    (1445080 1981278)
#>  7    3.00  -3.65   9.66  (-1629090 3037173)
#>  8   14.3    7.97  20.6    (1302757 1039534)
#>  9    1.49  -5.08   8.06  (-1429838 2523494)
#> 10   14.4    7.97  20.8    (1131970 1096609)
#> # ℹ 90 more rows
…
predict(sulfmod_with_NA, newdata = sulfmod_with_NA$newdata)

We can also use augment() to make the predictions on the
data set with missing values by running

augment(sulfmod_with_NA, newdata = sulfmod_with_NA$newdata)

#> Simple feature collection with 100 features and 2 fields
#> Geometry type: POINT
#> Dimension:     XY
#> Bounding box:  xmin: -2283774 ymin: 582930.5 xmax: 1985906 ymax: 3037173
#> Projected CRS: NAD83 / Conus Albers
#> # A tibble: 100 × 3
#>    sulfate .fitted            geometry
#>  *   <dbl>   <dbl>         <POINT [m]>
#>  1      NA    1.40  (-1771413 1752976)
#>  2      NA   24.5    (1018112 1867127)
#>  3      NA    8.99 (-291256.8 1553212)
#>  4      NA   16.4    (1274293 1267835)
#>  5      NA    4.91 (-547437.6 1638825)
#>  6      NA   26.7    (1445080 1981278)
#>  7      NA    3.00  (-1629090 3037173)
#>  8      NA   14.3    (1302757 1039534)
#>  9      NA    1.49  (-1429838 2523494)
#> 10      NA   14.4    (1131970 1096609)
#> # ℹ 90 more rows
…
predict(sealmod)

We can also use augment() to make the predictions:

augment(sealmod, newdata = sealmod$newdata)

#> Simple feature collection with 28 features and 2 fields
#> Geometry type: POLYGON
#> Dimension:     XY
#> Bounding box:  xmin: 913618.8 ymin: 1007542 xmax: 1115097 ymax: 1132682
#> Projected CRS: NAD83 / Alaska Albers
#> # A tibble: 28 × 3
#>    log_trend  .fitted                                                   geometry
#>  *     <dbl>    <dbl>                                              <POLYGON [m]>
#>  1        NA -0.115   ((1035002 1054710, 1035002 1054542, 1035002 1053542, 1035…
#>  2        NA -0.00918 ((1043093 1020553, 1043097 1020550, 1043101 1020550, 1043…
#>  3        NA -0.0603  ((1099737 1054310, 1099752 1054262, 1099788 1054278, 1099…
#>  4        NA -0.0360  ((1099002 1036542, 1099134 1036462, 1099139 1036431, 1099…
#>  5        NA -0.0724  ((1076902 1053189, 1076912 1053179, 1076931 1053179, 1076…
#>  6        NA -0.0549  ((1070501 1046969, 1070317 1046598, 1070308 1046542, 1070…
#>  7        NA -0.0976  ((1072995 1054942, 1072996 1054910, 1072997 1054878, 1072…
#>  8        NA -0.0715  ((960001.5 1127667, 960110.8 1127542, 960144.1 1127495, 9…
#>  9        NA -0.0825  ((1031308 1079817, 1031293 1079754, 1031289 1079741, 1031…
#> 10        NA -0.0593  ((998923.7 1053647, 998922.5 1053609, 998950 1053631, 999…
#> # ℹ 18 more rows
…
spmods is list whose names indicate the spatial
covariance type and whose values indicate the model fit for that spatial
covariance type. Generic functions can be called individually for each
list element. For example, we can augment the the model fit using the
exponential covariance function with diagnostics by running

augment(spmods$exponential)

#> Simple feature collection with 197 features and 6 fields
#> Geometry type: POINT
#> Dimension:     XY
#> Bounding box:  xmin: -2292550 ymin: 386181.1 xmax: 2173345 ymax: 3090370
#> Projected CRS: NAD83 / Conus Albers
#> # A tibble: 197 × 7
#>    sulfate .fitted .resid    .hat   .cooksd .std.resid           geometry
#>  *   <dbl>   <dbl>  <dbl>   <dbl>     <dbl>      <dbl>        <POINT [m]>
#>  1  12.9      5.92   7.00 0.00334 0.00161      -0.694  (817738.8 1080571)
#>  2  20.2      5.92  14.2  0.00256 0.00192       0.865  (914593.6 1295545)
#>  3  16.8      5.92  10.9  0.00259 0.000395      0.390  (359574.1 1178228)
#>  4  16.2      5.92  10.3  0.00239 0.000363      0.390  (265331.9 1239089)
#>  5   7.86     5.92   1.93 0.00202 0.00871      -2.07   (304528.8 1453636)
#>  6  15.4      5.92   9.43 0.00201 0.000240      0.345  (162932.8 1451625)
#>  7   0.986    5.92  -4.94 0.00380 0.000966     -0.503  (-1437776 1568022)
#>  8   0.425    5.92  -5.50 0.0138  0.00584      -0.646  (-1572878 1125529)
#>  9   3.58     5.92  -2.34 0.00673 0.0000148    -0.0467 (-1282009 1204889)
#> 10   2.38     5.92  -3.54 0.0123  0.0000139    -0.0335 (-1972775 1464991)
#> # ℹ 187 more rows
…
glance(binmod)

#> # A tibble: 1 × 9
#>       n     p  npar value   AIC  AICc logLik deviance pseudo.r.squared
#>   <int> <dbl> <int> <dbl> <dbl> <dbl>  <dbl>    <dbl>            <dbl>
#> 1   218     2     3  692.  698.  698.  -346.     190.          0.00311

augment(binmod)

#> Simple feature collection with 218 features and 7 fields
#> Geometry type: POINT
#> Dimension:     XY
#> Bounding box:  xmin: 269085 ymin: 1416151 xmax: 419057.4 ymax: 1541016
#> Projected CRS: NAD83 / Alaska Albers
#> # A tibble: 218 × 8
#>    presence  elev .fitted .resid    .hat  .cooksd .std.resid
#>  * <fct>    <dbl>   <dbl>  <dbl>   <dbl>    <dbl>      <dbl>
#>  1 0         469.  0.150  -0.571 0.0500  0.00904      -0.586
#>  2 0         362.  0.107  -0.477 0.0168  0.00198      -0.481
#>  3 0         173.  0.104  -0.468 0.00213 0.000235     -0.469
#>  4 0         280.  0.0939 -0.444 0.00616 0.000615     -0.445
#>  5 0         620.  0.198  -0.664 0.136   0.0402       -0.714
#>  6 0         164.  0.130  -0.528 0.00260 0.000364     -0.528
#>  7 0         164.  0.135  -0.538 0.00269 0.000392     -0.539
#>  8 0         186.  0.166  -0.603 0.00332 0.000607     -0.604
#>  9 0         362.  0.168  -0.606 0.0245  0.00474      -0.614
#> 10 0         430.  0.225  -0.714 0.0528  0.0150       -0.734
#> # ℹ 208 more rows
#> # ℹ 1 more variable: geometry <POINT [m]>
…
These predictions have similar spatial patterns as moose presence the
observed data. Next we remove the model predictions from
moose_preds and show how augment() can be used
to obtain the same predictions alongside prediction intervals (on the
response scale):

moose_preds$preds <- NULL
augment(binmod, newdata = moose_preds, type = "response", interval = "prediction")

#> Simple feature collection with 100 features and 5 fields
#> Geometry type: POINT
#> Dimension:     XY
#> Bounding box:  xmin: 269386.2 ymin: 1418453 xmax: 419976.2 ymax: 1541763
#> Projected CRS: NAD83 / Alaska Albers
#> # A tibble: 100 × 6
#>     elev strat .fitted .lower .upper           geometry
#>  * <dbl> <chr>   <dbl>  <dbl>  <dbl>        <POINT [m]>
#>  1  143. L       0.705 0.248   0.946 (401239.6 1436192)
#>  2  324. L       0.336 0.0373  0.868 (352640.6 1490695)
#>  3  158. L       0.263 0.0321  0.792 (360954.9 1491590)
#>  4  221. M       0.243 0.0360  0.734 (291839.8 1466091)
#>  5  209. M       0.742 0.270   0.957 (310991.9 1441630)
#>  6  218. L       0.191 0.0196  0.736 (304473.8 1512103)
#>  7  127. L       0.179 0.0226  0.673 (339011.1 1459318)
#>  8  122. L       0.241 0.0344  0.738 (342827.3 1463452)
#>  9  191  L       0.386 0.0414  0.902 (284453.8 1502837)
#> 10  105. L       0.494 0.114   0.882 (391343.9 1483791)
#> # ℹ 90 more rows
…
Appendices

An Additional Example Using caribou

The purpose of this example is to show more applications of the
splm() and spautor() functions when the data
are not an sf object, as well as to show a few other
functions in spmodel. The caribou data are are
designed experiment with two treatments observed on an equally spaced
grid and can be analyzed as point-referenced or areal data. We view the
first few rows of caribou by running

caribou

#> # A tibble: 30 × 5
#>    water tarp      z     x     y
#>    <fct> <fct> <dbl> <dbl> <dbl>
#>  1 Y     clear  2.42     1     6
#>  2 Y     shade  2.44     2     6
#>  3 Y     none   1.81     3     6
#>  4 N     clear  1.97     4     6
#>  5 N     shade  2.38     5     6
#>  6 Y     none   2.22     1     5
#>  7 N     clear  2.10     2     5
#>  8 Y     clear  1.80     3     5
#>  9 Y     shade  1.96     4     5
#> 10 Y     none   2.10     5     5
#> # ℹ 20 more rows
…
