An Introduction to spmodel • spmodel
…
Next we show the basic features and syntax of splm()
using the Alaskan moss data. We study the impact of log
distance to the road (log_dist2road) on log zinc
concentration (log_Zn). We view the first few rows of the
moss data by running

moss

#> Simple feature collection with 365 features and 7 fields
#> Geometry type: POINT
#> Dimension:     XY
#> Bounding box:  xmin: -445884.1 ymin: 1929616 xmax: -383656.8 ymax: 2061414
#> Projected CRS: NAD83 / Alaska Albers
#> # A tibble: 365 × 8
#>    sample field_dup lab_rep year  sideroad log_dist2road log_Zn
#>    <fct>  <fct>     <fct>   <fct> <fct>            <dbl>  <dbl>
#>  1 001PR  1         1       2001  N                 2.68   7.33
#>  2 001PR  1         2       2001  N                 2.68   7.38
#>  3 002PR  1         1       2001  N                 2.54   7.58
#>  4 003PR  1         1       2001  N                 2.97   7.63
#>  5 004PR  1         1       2001  N                 2.72   7.26
#>  6 005PR  1         1       2001  N                 2.76   7.65
#>  7 006PR  1         1       2001  S                 2.30   7.59
#>  8 007PR  1         1       2001  N                 2.78   7.16
#>  9 008PR  1         1       2001  N                 2.93   7.19
#> 10 009PR  1         1       2001  N                 2.79   8.07
#> # ℹ 355 more rows
#> # ℹ 1 more variable: geometry <POINT [m]>
…
We augment the data with diagnostics by running

augment(spmod)

#> Simple feature collection with 365 features and 7 fields
#> Geometry type: POINT
#> Dimension:     XY
#> Bounding box:  xmin: -445884.1 ymin: 1929616 xmax: -383656.8 ymax: 2061414
#> Projected CRS: NAD83 / Alaska Albers
#> # A tibble: 365 × 8
#>    log_Zn log_dist2road .fitted .resid   .hat .cooksd .std.resid
#>  *  <dbl>         <dbl>   <dbl>  <dbl>  <dbl>   <dbl>      <dbl>
#>  1   7.33          2.68    8.26 -0.928 0.0200 0.0142       1.18 
#>  2   7.38          2.68    8.26 -0.880 0.0200 0.0186       1.35 
#>  3   7.58          2.54    8.34 -0.755 0.0225 0.00482      0.647
#>  4   7.63          2.97    8.09 -0.464 0.0197 0.0305       1.74 
#>  5   7.26          2.72    8.24 -0.977 0.0215 0.131        3.45 
#>  6   7.65          2.76    8.21 -0.568 0.0284 0.0521       1.89 
#>  7   7.59          2.30    8.47 -0.886 0.0300 0.0591       1.96 
#>  8   7.16          2.78    8.20 -1.05  0.0335 0.00334      0.439
#>  9   7.19          2.93    8.12 -0.926 0.0378 0.0309       1.26 
#> 10   8.07          2.79    8.20 -0.123 0.0314 0.00847      0.723
#> # ℹ 355 more rows
#> # ℹ 1 more variable: geometry <POINT [m]>
…
sulfate_preds$preds <- NULL

While augment() was previously used to augment the
original data with model diagnostics, it can also be used to augment the
newdata data with predictions:

augment(sulfmod, newdata = sulfate_preds)

#> Simple feature collection with 100 features and 1 field
#> Geometry type: POINT
#> Dimension:     XY
#> Bounding box:  xmin: -2283774 ymin: 582930.5 xmax: 1985906 ymax: 3037173
#> Projected CRS: NAD83 / Conus Albers
#> # A tibble: 100 × 2
#>    .fitted            geometry
#>  *   <dbl>         <POINT [m]>
#>  1    1.40  (-1771413 1752976)
#>  2   24.5    (1018112 1867127)
#>  3    8.99 (-291256.8 1553212)
#>  4   16.4    (1274293 1267835)
#>  5    4.91 (-547437.6 1638825)
#>  6   26.7    (1445080 1981278)
#>  7    3.00  (-1629090 3037173)
#>  8   14.3    (1302757 1039534)
#>  9    1.49  (-1429838 2523494)
#> 10   14.4    (1131970 1096609)
#> # ℹ 90 more rows
Here .fitted represents the predictions.

Confidence intervals for the mean response or prediction intervals
for the predicted response can be obtained by specifying the
interval argument in predict() and
augment():

augment(sulfmod, newdata = sulfate_preds, interval = "prediction")

#> Simple feature collection with 100 features and 3 fields
#> Geometry type: POINT
#> Dimension:     XY
#> Bounding box:  xmin: -2283774 ymin: 582930.5 xmax: 1985906 ymax: 3037173
#> Projected CRS: NAD83 / Conus Albers
#> # A tibble: 100 × 4
#>    .fitted .lower .upper            geometry
#>  *   <dbl>  <dbl>  <dbl>         <POINT [m]>
#>  1    1.40  -6.62   9.42  (-1771413 1752976)
#>  2   24.5   17.0   32.0    (1018112 1867127)
#>  3    8.99   1.09  16.9  (-291256.8 1553212)
#>  4   16.4    8.67  24.2    (1274293 1267835)
#>  5    4.91  -2.80  12.6  (-547437.6 1638825)
#>  6   26.7   19.2   34.2    (1445080 1981278)
#>  7    3.00  -4.92  10.9   (-1629090 3037173)
#>  8   14.3    6.76  21.8    (1302757 1039534)
#>  9    1.49  -6.34   9.32  (-1429838 2523494)
#> 10   14.4    6.74  22.1    (1131970 1096609)
#> # ℹ 90 more rows
…
An Additional Example

We now use the caribou data from a foraging experiment
conducted in Alaska to show an application of splm() to
data stored in a tibble (data.frame) instead
of an sf object. In caribou, the x-coordinates
are stored in the x column and the y-coordinates are stored
in the y column. We view the first few rows of
caribou by running

caribou

#> # A tibble: 30 × 5
#>    water tarp      z     x     y
#>    <fct> <fct> <dbl> <dbl> <dbl>
#>  1 Y     clear  2.42     1     6
#>  2 Y     shade  2.44     2     6
#>  3 Y     none   1.81     3     6
#>  4 N     clear  1.97     4     6
#>  5 N     shade  2.38     5     6
#>  6 Y     none   2.22     1     5
#>  7 N     clear  2.10     2     5
#>  8 Y     clear  1.80     3     5
#>  9 Y     shade  1.96     4     5
#> 10 Y     none   2.10     5     5
#> # ℹ 20 more rows
…
Next we show the basic features and syntax of spglm()
using the moose data. We study the impact of elevation
(elev) on the presence of moose (presence)
observed at a site location in Alaska. presence equals one
if at least one moose was observed at the site and zero otherwise. We
view the first few rows of the moose data by running

moose

#> Simple feature collection with 218 features and 4 fields
#> Geometry type: POINT
#> Dimension:     XY
#> Bounding box:  xmin: 269085 ymin: 1416151 xmax: 419976.2 ymax: 1541763
#> Projected CRS: NAD83 / Alaska Albers
#> # A tibble: 218 × 5
#>     elev strat count presence           geometry
#>    <dbl> <chr> <dbl> <fct>           <POINT [m]>
#>  1  469. L         0 0        (293542.6 1541016)
#>  2  362. L         0 0        (298313.1 1533972)
#>  3  173. M         0 0        (281896.4 1532516)
#>  4  280. L         0 0        (298651.3 1530264)
#>  5  620. L         0 0        (311325.3 1527705)
#>  6  164. M         0 0        (291421.5 1518398)
#>  7  164. M         0 0        (287298.3 1518035)
#>  8  186. L         0 0        (279050.9 1517324)
#>  9  362. L         0 0        (346145.9 1512479)
#> 10  430. L         0 0        (321354.6 1509966)
#> # ℹ 208 more rows
…
The lower AIC and AICc for the spatial binomial regression model
indicates it is a much better fit to the data.

We augment the data with diagnostics by running

augment(binmod)

#> Simple feature collection with 218 features and 7 fields
#> Geometry type: POINT
#> Dimension:     XY
#> Bounding box:  xmin: 269085 ymin: 1416151 xmax: 419057.4 ymax: 1541016
#> Projected CRS: NAD83 / Alaska Albers
#> # A tibble: 218 × 8
#>    presence  elev .fitted .resid    .hat  .cooksd .std.resid
#>  * <fct>    <dbl>   <dbl>  <dbl>   <dbl>    <dbl>      <dbl>
#>  1 0         469.   -1.73 -0.571 0.0500  0.00904      -0.586
#>  2 0         362.   -2.12 -0.477 0.0168  0.00198      -0.481
#>  3 0         173.   -2.15 -0.468 0.00213 0.000235     -0.469
#>  4 0         280.   -2.27 -0.444 0.00616 0.000615     -0.445
#>  5 0         620.   -1.40 -0.664 0.136   0.0402       -0.714
#>  6 0         164.   -1.90 -0.528 0.00260 0.000364     -0.528
#>  7 0         164.   -1.86 -0.538 0.00269 0.000392     -0.539
#>  8 0         186.   -1.61 -0.603 0.00332 0.000607     -0.604
#>  9 0         362.   -1.60 -0.606 0.0245  0.00474      -0.614
#> 10 0         430.   -1.24 -0.714 0.0528  0.0150       -0.734
#> # ℹ 208 more rows
#> # ℹ 1 more variable: geometry <POINT [m]>
…
These predictions have similar spatial patterns as moose presence the
observed data. Next we remove the model predictions from
moose_preds and show how augment() can be used
to obtain the same predictions alongside prediction intervals (on the
response scale):

moose_preds$preds <- NULL
augment(binmod, newdata = moose_preds, type.predict = "response", interval = "prediction")

#> Simple feature collection with 100 features and 5 fields
#> Geometry type: POINT
#> Dimension:     XY
#> Bounding box:  xmin: 269386.2 ymin: 1418453 xmax: 419976.2 ymax: 1541763
#> Projected CRS: NAD83 / Alaska Albers
#> # A tibble: 100 × 6
#>     elev strat .fitted .lower .upper           geometry
#>  * <dbl> <chr>   <dbl>  <dbl>  <dbl>        <POINT [m]>
#>  1  143. L       0.705 0.248   0.946 (401239.6 1436192)
#>  2  324. L       0.336 0.0373  0.868 (352640.6 1490695)
#>  3  158. L       0.263 0.0321  0.792 (360954.9 1491590)
#>  4  221. M       0.243 0.0360  0.734 (291839.8 1466091)
#>  5  209. M       0.742 0.270   0.957 (310991.9 1441630)
#>  6  218. L       0.191 0.0196  0.736 (304473.8 1512103)
#>  7  127. L       0.179 0.0226  0.673 (339011.1 1459318)
#>  8  122. L       0.241 0.0344  0.738 (342827.3 1463452)
#>  9  191  L       0.386 0.0414  0.902 (284453.8 1502837)
#> 10  105. L       0.494 0.114   0.882 (391343.9 1483791)
#> # ℹ 90 more rows
…
