Spatial Generalized Linear Models in spmodel • spmodel
…
The function augments the data with model diagnostics:

aug_mod <- augment(bin_spmod_anis)
aug_mod

#> Simple feature collection with 218 features and 8 fields
#> Geometry type: POINT
#> Dimension:     XY
#> Bounding box:  xmin: 269085 ymin: 1416151 xmax: 419057.4 ymax: 1541016
#> Projected CRS: NAD83 / Alaska Albers
#> # A tibble: 218 × 9
#>    presence  elev strat .fitted .resid    .hat   .cooksd .std.resid
#>  * <fct>    <dbl> <chr>   <dbl>  <dbl>   <dbl>     <dbl>      <dbl>
#>  1 0         469. L      0.130  -0.527 0.0923  0.00777       -0.553
#>  2 0         362. L      0.0272 -0.235 0.00973 0.000137      -0.236
#>  3 0         173. M      0.0297 -0.246 0.00136 0.0000205     -0.246
#>  4 0         280. L      0.0120 -0.155 0.00187 0.0000113     -0.155
#>  5 0         620. L      0.276  -0.804 0.360   0.142         -1.01 
#>  6 0         164. M      0.0669 -0.372 0.00286 0.0000996     -0.373
#>  7 0         164. M      0.0960 -0.449 0.00397 0.000202      -0.450
#>  8 0         186. L      0.0754 -0.396 0.00486 0.000192      -0.397
#>  9 0         362. L      0.0610 -0.355 0.0211  0.000692      -0.359
#> 10 0         430. L      0.165  -0.600 0.0871  0.00941       -0.628
#> # ℹ 208 more rows
#> # ℹ 1 more variable: geometry <POINT [m]>
…
aug_pred <- augment(
  bin_spmod_anis,
  newdata = moose_preds,
  type = "response", 
  interval = "prediction"
)
aug_pred

#> Simple feature collection with 100 features and 5 fields
#> Geometry type: POINT
#> Dimension:     XY
#> Bounding box:  xmin: 269386.2 ymin: 1418453 xmax: 419976.2 ymax: 1541763
#> Projected CRS: NAD83 / Alaska Albers
#> # A tibble: 100 × 6
#>     elev strat .fitted  .lower .upper           geometry
#>  * <dbl> <chr>   <dbl>   <dbl>  <dbl>        <POINT [m]>
#>  1  143. L      0.536  0.150    0.883 (401239.6 1436192)
#>  2  324. L      0.452  0.107    0.851 (352640.6 1490695)
#>  3  158. L      0.0954 0.0104   0.514 (360954.9 1491590)
#>  4  221. M      0.108  0.0229   0.384 (291839.8 1466091)
#>  5  209. M      0.838  0.466    0.968 (310991.9 1441630)
#>  6  218. L      0.0328 0.00387  0.228 (304473.8 1512103)
#>  7  127. L      0.0381 0.00511  0.234 (339011.1 1459318)
#>  8  122. L      0.0747 0.00983  0.396 (342827.3 1463452)
#>  9  191  L      0.375  0.0410   0.893 (284453.8 1502837)
#> 10  105. L      0.142  0.0197   0.577 (391343.9 1483791)
#> # ℹ 90 more rows
…
