Augment data with information from fitted model objects — augment.spmodel • spmodel
…
    See also

    tidy.spmodel() glance.spmodel()

    Examples

spmod <- splm(z ~ water + tarp,
  data = caribou,
  spcov_type = "exponential", xcoord = x, ycoord = y
)
augment(spmod)
#> # A tibble: 30 x 10
#>        z water tarp      x     y .fitted  .resid  .hat .cooksd .std.resid
#>    <dbl> <fct> <fct> <dbl> <dbl>   <dbl>   <dbl> <dbl>   <dbl>      <dbl>
#>  1  2.42 Y     clear     1     6    1.97  0.454  0.116 0.185        2.53 
#>  2  2.44 Y     shade     2     6    2.25  0.190  0.137 0.0404       1.09 
#>  3  1.81 Y     none      3     6    2.05 -0.237  0.137 0.0649      -1.38 
#>  4  1.97 N     clear     4     6    2.05 -0.0838 0.174 0.00174     -0.200
#>  5  2.38 N     shade     5     6    2.34  0.0407 0.153 0.0135       0.594
#>  6  2.22 Y     none      1     5    2.05  0.177  0.147 0.0370       1.00 
#>  7  2.10 N     clear     2     5    2.05  0.0512 0.156 0.00790      0.450
#>  8  1.80 Y     clear     3     5    1.97 -0.163  0.122 0.0119      -0.624
#>  9  1.96 Y     shade     4     5    2.25 -0.290  0.119 0.0566      -1.38 
#> 10  2.10 Y     none      5     5    2.05  0.0522 0.131 0.0229       0.837
#> # ... with 20 more rows
spmod_sulf <- splm(sulfate ~ 1, data = sulfate, spcov_type = "exponential")
augment(spmod_sulf)
#> Simple feature collection with 197 features and 6 fields
#> Geometry type: POINT
#> Dimension:     XY
#> Bounding box:  xmin: -2292550 ymin: 386181.1 xmax: 2173345 ymax: 3090370
#> Projected CRS: NAD83 / Conus Albers
#> # A tibble: 197 x 7
#>    sulfate .fitted .resid    .hat   .cooksd .std.resid           geometry
#>  *   <dbl>   <dbl>  <dbl>   <dbl>     <dbl>      <dbl>        <POINT [m]>
#>  1  12.9      5.92   7.00 0.00334 0.00161      -0.694  (817738.8 1080571)
#>  2  20.2      5.92  14.2  0.00256 0.00192       0.865  (914593.6 1295545)
#>  3  16.8      5.92  10.9  0.00259 0.000394      0.390  (359574.1 1178228)
#>  4  16.2      5.92  10.3  0.00239 0.000362      0.390  (265331.9 1239089)
#>  5   7.86     5.92   1.93 0.00202 0.00869      -2.07   (304528.8 1453636)
#>  6  15.4      5.92   9.43 0.00201 0.000240      0.345  (162932.8 1451625)
#>  7   0.986    5.92  -4.94 0.00380 0.000962     -0.503  (-1437776 1568022)
#>  8   0.425    5.92  -5.50 0.0138  0.00576      -0.646  (-1572878 1125529)
#>  9   3.58     5.92  -2.34 0.00673 0.0000147    -0.0467 (-1282009 1204889)
#> 10   2.38     5.92  -3.54 0.0123  0.0000137    -0.0335 (-1972775 1464991)
#> # ... with 187 more rows
augment(spmod_sulf, newdata = sulfate_preds)
#> Simple feature collection with 100 features and 1 field
#> Geometry type: POINT
#> Dimension:     XY
#> Bounding box:  xmin: -2283774 ymin: 582930.5 xmax: 1985906 ymax: 3037173
#> Projected CRS: NAD83 / Conus Albers
#> # A tibble: 100 x 2
#>    .fitted            geometry
#>  *   <dbl>         <POINT [m]>
#>  1    1.62  (-1771413 1752976)
#>  2   24.4    (1018112 1867127)
#>  3    8.95 (-291256.8 1553212)
#>  4   16.5    (1274293 1267835)
#>  5    4.93 (-547437.6 1638825)
#>  6   26.8    (1445080 1981278)
#>  7    2.87  (-1629090 3037173)
#>  8   14.3    (1302757 1039534)
#>  9    1.53  (-1429838 2523494)
#> 10   14.3    (1131970 1096609)
#> # ... with 90 more rows
# missingness in original data
spmod_seal <- spautor(log_trend ~ 1, data = seal, spcov_type = "car")
augment(spmod_seal)
#> Simple feature collection with 34 features and 6 fields
#> Geometry type: POLYGON
#> Dimension:     XY
#> Bounding box:  xmin: 980001.5 ymin: 1010815 xmax: 1116002 ymax: 1145054
#> Projected CRS: NAD83 / Alaska Albers
#> # A tibble: 34 x 7
#>    log_trend .fitted  .resid   .hat .cooksd .std.resid                  geometry
#>  *     <dbl>   <dbl>   <dbl>  <dbl>   <dbl>      <dbl>             <POLYGON [m]>
#>  1  -0.282   -0.0710 -0.211  0.0161 0.0206      -1.13  ((1037002 1039492, 10370~
#>  2  -0.00121 -0.0710  0.0698 0.0475 0.0246       0.719 ((1070158 1030216, 10701~
#>  3   0.0354  -0.0710  0.106  0.0291 0.0178       0.783 ((1054906 1034826, 10549~
#>  4  -0.0160  -0.0710  0.0550 0.0229 0.00158      0.263 ((1025142 1056940, 10251~
#>  5   0.0872  -0.0710  0.158  0.0277 0.0374       1.16  ((1026035 1044623, 10260~
#>  6  -0.266   -0.0710 -0.195  0.0280 0.0493      -1.33  ((1100345 1060709, 11002~
#>  7   0.0743  -0.0710  0.145  0.0492 0.0861       1.32  ((1030247 1029637, 10302~
#>  8  -0.00961 -0.0710  0.0614 0.0123 0.00238      0.441 ((1116002 1024542, 11160~
#>  9  -0.182   -0.0710 -0.111  0.0226 0.0218      -0.983 ((1079864 1025088, 10798~
#> 10   0.00351 -0.0710  0.0745 0.0316 0.00977      0.556 ((1110363 1037056, 11103~
#> # ... with 24 more rows
augment(spmod_seal, newdata = spmod_seal$newdata)
#> Simple feature collection with 28 features and 2 fields
#> Geometry type: POLYGON
#> Dimension:     XY
#> Bounding box:  xmin: 913618.8 ymin: 1007542 xmax: 1115097 ymax: 1132682
#> Projected CRS: NAD83 / Alaska Albers
#> # A tibble: 28 x 3
#>    log_trend .fitted                                                    geometry
#>  *     <dbl>   <dbl>                                               <POLYGON [m]>
#>  1        NA -0.114  ((1035002 1054710, 1035002 1054542, 1035002 1053542, 10350~
#>  2        NA -0.0101 ((1043093 1020553, 1043097 1020550, 1043101 1020550, 10431~
#>  3        NA -0.0604 ((1099737 1054310, 1099752 1054262, 1099788 1054278, 10998~
#>  4        NA -0.0365 ((1099002 1036542, 1099134 1036462, 1099139 1036431, 10991~
#>  5        NA -0.0725 ((1076902 1053189, 1076912 1053179, 1076931 1053179, 10769~
#>  6        NA -0.0551 ((1070501 1046969, 1070317 1046598, 1070308 1046542, 10703~
#>  7        NA -0.0973 ((1072995 1054942, 1072996 1054910, 1072997 1054878, 10729~
#>  8        NA -0.0715 ((960001.5 1127667, 960110.8 1127542, 960144.1 1127495, 96~
#>  9        NA -0.0822 ((1031308 1079817, 1031293 1079754, 1031289 1079741, 10312~
#> 10        NA -0.0595 ((998923.7 1053647, 998922.5 1053609, 998950 1053631, 9990~
#> # ... with 18 more rows
…
