Augment data with information from fitted model objects — augment.spmod • spmodel
…
    See also

    tidy.spmod() glance.spmod()

    Examples

spmod <- splm(z ~ water + tarp,
  data = caribou,
  spcov_type = "exponential", xcoord = x, ycoord = y
)
augment(spmod)
#> # A tibble: 30 x 10
#>        z water tarp      x     y .fitted  .resid   .hat   .cooksd .std.resid
#>    <dbl> <fct> <fct> <dbl> <dbl>   <dbl>   <dbl>  <dbl>     <dbl>      <dbl>
#>  1  2.42 Y     clear     1     6    1.97  0.454  0.724  1.02          2.37  
#>  2  2.44 Y     shade     2     6    2.25  0.190  0.179  0.0306       -0.827 
#>  3  1.81 Y     none      3     6    2.05 -0.237  0.128  0.195        -2.47  
#>  4  1.97 N     clear     4     6    2.05 -0.0838 0.182  0.0109       -0.490 
#>  5  2.38 N     shade     5     6    2.34  0.0407 0.121  0.00444       0.383 
#>  6  2.22 Y     none      1     5    2.05  0.177  0.0936 0.0000222    -0.0308
#>  7  2.10 N     clear     2     5    2.05  0.0512 0.154  0.00542      -0.376 
#>  8  1.80 Y     clear     3     5    1.97 -0.163  0.0778 0.0221       -1.07  
#>  9  1.96 Y     shade     4     5    2.25 -0.290  0.110  0.0546       -1.41  
#> 10  2.10 Y     none      5     5    2.05  0.0522 0.136  0.0236        0.835 
#> # ... with 20 more rows
spmod_sulf <- splm(sulfate ~ 1, data = sulfate, spcov_type = "exponential")
augment(spmod_sulf)
#> Simple feature collection with 197 features and 6 fields
#> Geometry type: POINT
#> Dimension:     XY
#> Bounding box:  xmin: -2292550 ymin: 386181.1 xmax: 2173345 ymax: 3090370
#> Projected CRS: NAD83 / Conus Albers
#> # A tibble: 197 x 7
#>    sulfate .fitted .resid    .hat   .cooksd .std.resid           geometry
#>  *   <dbl>   <dbl>  <dbl>   <dbl>     <dbl>      <dbl>        <POINT [m]>
#>  1  12.9      5.92   7.00 0.443   0.406         0.957  (817738.8 1080571)
#>  2  20.2      5.92  14.2  0.0420  0.103         1.57   (914593.6 1295545)
#>  3  16.8      5.92  10.9  0.0356  0.00703       0.444  (359574.1 1178228)
#>  4  16.2      5.92  10.3  0.0121  0.0000808     0.0819 (265331.9 1239089)
#>  5   7.86     5.92   1.93 0.00847 0.0236       -1.67   (304528.8 1453636)
#>  6  15.4      5.92   9.43 0.00736 0.00421       0.756  (162932.8 1451625)
#>  7   0.986    5.92  -4.94 0.109   0.178        -1.27   (-1437776 1568022)
#>  8   0.425    5.92  -5.50 0.0264  0.00913      -0.588  (-1572878 1125529)
#>  9   3.58     5.92  -2.34 0.00181 0.0000262     0.120  (-1282009 1204889)
#> 10   2.38     5.92  -3.54 0.0252  0.000392      0.125  (-1972775 1464991)
#> # ... with 187 more rows
augment(spmod_sulf, newdata = sulfate_preds)
#> Simple feature collection with 100 features and 1 field
#> Geometry type: POINT
#> Dimension:     XY
#> Bounding box:  xmin: -2283774 ymin: 582930.5 xmax: 1985906 ymax: 3037173
#> Projected CRS: NAD83 / Conus Albers
#> # A tibble: 100 x 2
#>    .fitted            geometry
#>  *   <dbl>         <POINT [m]>
#>  1    1.62  (-1771413 1752976)
#>  2   24.4    (1018112 1867127)
#>  3    8.95 (-291256.8 1553212)
#>  4   16.5    (1274293 1267835)
#>  5    4.93 (-547437.6 1638825)
#>  6   26.8    (1445080 1981278)
#>  7    2.87  (-1629090 3037173)
#>  8   14.3    (1302757 1039534)
#>  9    1.53  (-1429838 2523494)
#> 10   14.3    (1131970 1096609)
#> # ... with 90 more rows
# missingness in original data
spmod_seal <- spautor(log_trend ~ 1, data = seal, spcov_type = "car")
augment(spmod_seal)
#> Simple feature collection with 34 features and 6 fields
#> Geometry type: POLYGON
#> Dimension:     XY
#> Bounding box:  xmin: 980001.5 ymin: 1010815 xmax: 1116002 ymax: 1145054
#> Projected CRS: NAD83 / Alaska Albers
#> # A tibble: 34 x 7
#>    log_trend .fitted  .resid   .hat .cooksd .std.resid                  geometry
#>  *     <dbl>   <dbl>   <dbl>  <dbl>   <dbl>      <dbl>             <POLYGON [m]>
#>  1  -0.282   -0.0710 -0.211  0.0179 0.0233      -1.14  ((1037002 1039492, 10370~
#>  2  -0.00121 -0.0710  0.0698 0.0699 0.0412       0.767 ((1070158 1030216, 10701~
#>  3   0.0354  -0.0710  0.106  0.0218 0.0109       0.705 ((1054906 1034826, 10549~
#>  4  -0.0160  -0.0710  0.0550 0.0343 0.00633      0.430 ((1025142 1056940, 10251~
#>  5   0.0872  -0.0710  0.158  0.0229 0.0299       1.14  ((1026035 1044623, 10260~
#>  6  -0.266   -0.0710 -0.195  0.0280 0.0493      -1.33  ((1100345 1060709, 11002~
#>  7   0.0743  -0.0710  0.145  0.0480 0.0818       1.30  ((1030247 1029637, 10302~
#>  8  -0.00961 -0.0710  0.0614 0.0143 0.00123      0.293 ((1116002 1024542, 11160~
#>  9  -0.182   -0.0710 -0.111  0.0131 0.0155      -1.09  ((1079864 1025088, 10798~
#> 10   0.00351 -0.0710  0.0745 0.0340 0.0107       0.561 ((1110363 1037056, 11103~
#> # ... with 24 more rows
augment(spmod_seal, newdata = spmod_seal$newdata)
#> Simple feature collection with 28 features and 2 fields
#> Geometry type: POLYGON
#> Dimension:     XY
#> Bounding box:  xmin: 913618.8 ymin: 1007542 xmax: 1115097 ymax: 1132682
#> Projected CRS: NAD83 / Alaska Albers
#> # A tibble: 28 x 3
#>    log_trend .fitted                                                    geometry
#>  *     <dbl>   <dbl>                                               <POLYGON [m]>
#>  1        NA -0.113  ((1035002 1054710, 1035002 1054542, 1035002 1053542, 10350~
#>  2        NA -0.0108 ((1043093 1020553, 1043097 1020550, 1043101 1020550, 10431~
#>  3        NA -0.0608 ((1099737 1054310, 1099752 1054262, 1099788 1054278, 10998~
#>  4        NA -0.0383 ((1099002 1036542, 1099134 1036462, 1099139 1036431, 10991~
#>  5        NA -0.0730 ((1076902 1053189, 1076912 1053179, 1076931 1053179, 10769~
#>  6        NA -0.0556 ((1070501 1046969, 1070317 1046598, 1070308 1046542, 10703~
#>  7        NA -0.0968 ((1072995 1054942, 1072996 1054910, 1072997 1054878, 10729~
#>  8        NA -0.0716 ((960001.5 1127667, 960110.8 1127542, 960144.1 1127495, 96~
#>  9        NA -0.0776 ((1031308 1079817, 1031293 1079754, 1031289 1079741, 10312~
#> 10        NA -0.0647 ((998923.7 1053647, 998922.5 1053609, 998950 1053631, 9990~
#> # ... with 18 more rows
…
