Model predictions (Kriging) — predict.spmod • spmodel
…
#> 93  12.423394  4.4963234 20.350464
#> 94  25.946812 18.4522301 33.441395
#> 95  15.137847  7.2417146 23.033980
#> 96  16.654989  9.0689535 24.241024
#> 97  21.603763 13.8886420 29.318883
#> 98  20.798900 13.5068048 28.090995
#> 99  16.737467  9.3086051 24.166329
#> 100 16.730626  8.7188384 24.742414
augment(spmod, newdata = sulfate_preds, interval = "prediction")
#> Simple feature collection with 100 features and 3 fields
#> Geometry type: POINT
#> Dimension:     XY
#> Bounding box:  xmin: -2283774 ymin: 582930.5 xmax: 1985906 ymax: 3037173
#> Projected CRS: NAD83 / Conus Albers
#> # A tibble: 100 x 4
#>    .fitted .lower .upper            geometry
#>  *   <dbl>  <dbl>  <dbl>         <POINT [m]>
#>  1    1.62  -6.45   9.68  (-1771413 1752976)
#>  2   24.4   16.8   31.9    (1018112 1867127)
#>  3    8.95   1.03  16.9  (-291256.8 1553212)
#>  4   16.5    8.64  24.3    (1274293 1267835)
#>  5    4.93  -2.78  12.6  (-547437.6 1638825)
#>  6   26.8   19.3   34.3    (1445080 1981278)
#>  7    2.87  -5.05  10.8   (-1629090 3037173)
#>  8   14.3    6.77  21.7    (1302757 1039534)
#>  9    1.53  -6.33   9.38  (-1429838 2523494)
#> 10   14.3    6.61  21.9    (1131970 1096609)
#> # ... with 90 more rows
…
