Model predictions (Kriging) — predict.spmodel • spmodel
…
#> 93  12.423394  4.4963234 20.350464
#> 94  25.946812 18.4522301 33.441395
#> 95  15.137847  7.2417146 23.033980
#> 96  16.654989  9.0689535 24.241024
#> 97  21.603763 13.8886420 29.318883
#> 98  20.798900 13.5068048 28.090995
#> 99  16.737467  9.3086051 24.166329
#> 100 16.730626  8.7188384 24.742414
augment(spmod, newdata = sulfate_preds, interval = "prediction")
#> Simple feature collection with 100 features and 3 fields
#> Geometry type: POINT
#> Dimension:     XY
#> Bounding box:  xmin: -2283774 ymin: 582930.5 xmax: 1985906 ymax: 3037173
#> Projected CRS: NAD83 / Conus Albers
#> # A tibble: 100 × 4
#>    .fitted .lower .upper            geometry
#>  *   <dbl>  <dbl>  <dbl>         <POINT [m]>
#>  1    1.62  -6.45   9.68  (-1771413 1752976)
#>  2   24.4   16.8   31.9    (1018112 1867127)
#>  3    8.95   1.03  16.9  (-291256.8 1553212)
#>  4   16.5    8.64  24.3    (1274293 1267835)
#>  5    4.93  -2.78  12.6  (-547437.6 1638825)
#>  6   26.8   19.3   34.3    (1445080 1981278)
#>  7    2.87  -5.05  10.8   (-1629090 3037173)
#>  8   14.3    6.77  21.7    (1302757 1039534)
#>  9    1.53  -6.33   9.38  (-1429838 2523494)
#> 10   14.3    6.61  21.9    (1131970 1096609)
#> # ℹ 90 more rows
…
#> 93  -0.225678641 -2.7745389  2.32318159
#> 94  -0.076589222 -3.9986045  3.84542608
#> 95  -0.363366012 -3.4476615  2.72092945
#> 96   0.877386103 -1.5947250  3.34949721
#> 97   0.477418518 -2.1065468  3.06138380
#> 98  -1.319446197 -3.9431765  1.30428406
#> 99  -0.853936630 -3.1207980  1.41292472
#> 100 -0.126740393 -2.5600685  2.30658775
augment(spgmod, newdata = moose_preds, interval = "prediction")
#> Simple feature collection with 100 features and 5 fields
#> Geometry type: POINT
#> Dimension:     XY
#> Bounding box:  xmin: 269386.2 ymin: 1418453 xmax: 419976.2 ymax: 1541763
#> Projected CRS: NAD83 / Alaska Albers
#> # A tibble: 100 × 6
#>     elev strat .fitted .lower  .upper           geometry
#>  * <dbl> <chr>   <dbl>  <dbl>   <dbl>        <POINT [m]>
#>  1  143. L      0.0849 -2.21   2.38   (401239.6 1436192)
#>  2  324. L     -0.549  -3.53   2.43   (352640.6 1490695)
#>  3  158. L     -2.25   -5.05   0.557  (360954.9 1491590)
#>  4  221. M     -1.08   -3.52   1.35   (291839.8 1466091)
#>  5  209. M      1.41   -0.924  3.75   (310991.9 1441630)
#>  6  218. L     -3.00   -5.92  -0.0907 (304473.8 1512103)
#>  7  127. L     -3.35   -6.19  -0.520  (339011.1 1459318)
#>  8  122. L     -2.97   -5.70  -0.241  (342827.3 1463452)
#>  9  191  L     -1.05   -4.25   2.16   (284453.8 1502837)
#> 10  105. L     -1.43   -3.83   0.960  (391343.9 1483791)
#> # ℹ 90 more rows
…
